alimentacao • pof
…
merge3 <- merge2 %>%
  left_join(indice_alimentacao, "nivel") %>%
  arrange(Indice) %>%
  select(c(5,1,6,4))

merge3
#> # A tibble: 85 x 4
#>    Indice nivel descricao                          media_mensal
#>     <dbl> <dbl> <chr>                                     <dbl>
#>  1      1     0 Alimentacao total                        658.  
#>  2      2     1 Alimentação no domicílio                 442.  
#>  3      3   101 Cereais, leguminosas e oleaginosas        22.2 
#>  4      4  1011 Arroz                                     12.8 
#>  5      5  1012 Feijão                                     5.92
#>  6      6  1013 Orgânicos                                  0.03
#>  7      7  1014 Outros                                     3.48
#>  8      8   102 Farinhas, féculas e massas                15.9 
#>  9      9  1021 Macarrão                                   4.45
#> 10     10  1022 Farinha de trigo                           1.29
#> # … with 75 more rows
…
